<?xml version="1.0" encoding="UTF-8"?>
<!DOCTYPE svg PUBLIC "-//W3C//DTD SVG 1.1//EN" "http://www.w3.org/Graphics/SVG/1.1/DTD/svg11.dtd">
<!-- Creator: CorelDRAW X8 -->
<svg xmlns="http://www.w3.org/2000/svg" xml:space="preserve" width="100%" height="100%" version="1.1" style="shape-rendering:geometricPrecision; text-rendering:geometricPrecision; image-rendering:optimizeQuality; fill-rule:evenodd; clip-rule:evenodd"
viewBox="0 0 15434 12368"
 xmlns:xlink="http://www.w3.org/1999/xlink">
 <defs>
  <style type="text/css">
   <![CDATA[
    .fil1 {fill:#395D75}
    .fil3 {fill:#395F76}
    .fil0 {fill:#505050}
    .fil2 {fill:#515150}
   ]]>
  </style>
 </defs>
 <g id="Layer_x0020_1">
  <metadata id="CorelCorpID_0Corel-Layer"/>
  <path class="fil0" d="M4585 6771l2884 1658 2870 -1667 0 -3316 -5754 3325zm2886 823l-723 -1209 99 -714 1140 -666 22 158 -996 577 258 68 767 -449 24 169 -609 352 257 68 381 -222 23 159 -227 131 255 67 43 298 -714 1213z"/>
  <path class="fil0" d="M9276 1055l-767 1191 -1015 -566 430 384 -261 440 6 119 -446 258 26 -209 195 -115 -188 -67 -242 -430 414 -377 -999 556 -771 -1197 -1094 653 -2 3308 5760 -3333 -1046 -615zm-2092 2238l34 -205 479 -276 12 169 -525 312z"/>
  <polygon class="fil1" points="6022,824 7467,1664 8893,837 7451,0 "/>
  <polygon class="fil1" points="9845,3307 6109,5476 6333,5546 10083,3383 "/>
  <polygon class="fil1" points="9415,3170 5676,5341 5890,5407 9640,3242 "/>
  <polygon class="fil1" points="8779,2967 8549,2894 4792,5063 5023,5136 "/>
  <polygon class="fil1" points="8984,3033 5242,5205 5457,5272 9210,3105 "/>
  <path class="fil2" d="M770 10091c117,76 185,179 177,326 -12,256 -205,407 -520,407 -176,0 -341,-45 -413,-119 -33,-82 -5,-248 47,-334l17 0c-16,205 135,374 371,370 171,-3 271,-98 271,-221 0,-80 -51,-133 -157,-203l-342 -227c-136,-90 -203,-210 -189,-353 17,-204 166,-344 414,-344 64,0 178,9 268,20l124 0 -26 289 -19 0c0,-137 -111,-226 -277,-226 -155,0 -253,83 -258,189 -4,77 55,129 137,183l375 243z"/>
  <path class="fil2" d="M2322 9725l-19 0 0 -23c0,-120 -76,-198 -197,-201l-264 0 0 1154c2,68 57,122 126,122l25 0 0 20 -598 0 1 -20 25 0c67,0 122,-53 125,-120l0 -1156 -264 0c-121,3 -197,81 -197,201l0 23 -20 0 0 -342c37,15 149,34 233,35l791 0c85,-1 197,-20 233,-35l0 342z"/>
  <path class="fil2" d="M3456 10663c43,80 110,114 168,114l16 0 0 20 -626 0 0 -20 17 0c51,0 106,-45 76,-123l-97 -243 -461 0 -101 243c-32,78 25,123 76,123l17 0 0 20 -422 0 0 -20 18 0c56,0 124,-33 166,-111l454 -1028c14,-29 92,-200 97,-257l18 0 584 1282zm-479 -335l-192 -483 -201 483 393 0z"/>
  <path class="fil2" d="M5225 9420l0 20 -36 0c-66,0 -119,52 -121,117l0 1016c0,148 22,251 22,251l-18 0 -993 -946 0 780c1,66 55,119 121,119l37 0 0 20 -596 0 0 -20 36 0c67,0 121,-53 122,-119l0 -1022c0,-146 -23,-245 -23,-245l19 0 992 945 0 -777c-1,-66 -55,-119 -121,-119l-36 0 -1 -20 596 0z"/>
  <path class="fil2" d="M7059 9725l-20 0 0 -23c0,-120 -76,-198 -197,-201l-264 0 0 1154c2,68 58,122 126,122l25 0 0 20 -597 0 0 -20 25 0c68,0 123,-53 126,-120l0 -1156 -265 0c-120,3 -197,81 -196,201l0 23 -20 0 0 -342c36,15 148,34 233,35l791 0c84,-1 197,-20 233,-35l0 342z"/>
  <path class="fil2" d="M8099 10797l0 -20 25 0c68,0 124,-54 126,-122l0 -502 -638 0 0 500c1,69 57,124 126,124l25 0 0 20 -597 0 0 -20 25 0c69,0 125,-55 126,-124l0 -1090c-2,-68 -57,-123 -126,-123l-25 0 0 -20 597 0 0 20 -25 0c-68,0 -124,56 -126,123l0 507 638 0 0 -507c-3,-67 -58,-123 -126,-123l-25 0 0 -20 597 0 -1 20 -24 0c-69,0 -125,55 -126,123l0 1090c1,69 57,124 126,124l25 0 0 20 -597 0z"/>
  <path class="fil2" d="M9877 10797l-1018 0 0 -20 25 0c69,0 125,-55 126,-124l0 -1096c-4,-65 -59,-117 -126,-117l-24 0 -1 -20 754 0c85,0 198,-20 235,-35l0 343 -20 0 0 -23c0,-118 -74,-196 -192,-201l-331 0 0 572 261 0c96,-1 167,-72 166,-168l0 -17 20 0 0 454 -20 0 0 -17c1,-95 -69,-166 -164,-169l-263 0 0 554 258 0c197,0 324,-122 385,-318l20 0 -91 402z"/>
  <path class="fil2" d="M12228 10654c13,77 73,123 143,123l32 0 0 20 -591 0 0 -19 31 0c42,0 81,-41 76,-84l-78 -712 -368 637c0,0 -73,121 -76,217l-18 0 -506 -850 -78 708c-4,42 35,84 77,84l31 0 0 19 -412 0 0 -20 31 0c71,0 134,-46 144,-123l163 -1261 18 0 610 1003 585 -1003 18 0 168 1261z"/>
  <path class="fil2" d="M13664 10663c43,80 110,114 168,114l17 0 0 20 -627 0 0 -20 17 0c51,0 106,-45 76,-123l-96 -243 -462 0 -100 243c-33,78 24,123 75,123l17 0 0 20 -422 0 0 -20 18 0c56,0 124,-33 166,-111l454 -1028c14,-29 92,-200 97,-257l18 0 584 1282zm-478 -335l-193 -483 -201 483 394 0z"/>
  <path class="fil2" d="M15434 9420l-1 20 -36 0c-66,0 -119,52 -121,117l0 1016c0,148 22,251 22,251l-18 0 -993 -946 0 780c1,66 55,119 121,119l37 0 0 20 -596 0 0 -20 37 0c66,0 120,-53 121,-119l0 -1022c0,-146 -23,-245 -23,-245l19 0 992 945 0 -777c-1,-66 -55,-119 -121,-119l-36 0 -1 -20 597 0z"/>
  <path class="fil3" d="M8 11634l109 0 139 385c17,49 34,101 51,150l5 0c17,-49 32,-101 49,-150l136 -385 111 0 0 720 -85 0 0 -396c0,-63 7,-149 12,-213l-5 0 -57 164 -136 373 -60 0 -137 -373 -57 -164 -4 0c4,64 11,150 11,213l0 396 -82 0 0 -720z"/>
  <path class="fil3" d="M778 12300c0,-42 30,-71 66,-71 35,0 65,29 65,71 0,39 -30,68 -65,68 -36,0 -66,-29 -66,-68z"/>
  <path class="fil3" d="M1037 11994c0,-231 137,-373 320,-373 88,0 156,42 197,89l-49 59c-38,-40 -86,-68 -147,-68 -136,0 -226,112 -226,291 0,181 87,296 223,296 69,0 120,-31 167,-82l50 57c-57,66 -127,105 -221,105 -180,0 -314,-139 -314,-374z"/>
  <path class="fil3" d="M1679 12300c0,-42 29,-71 65,-71 36,0 65,29 65,71 0,39 -29,68 -65,68 -36,0 -65,-29 -65,-68z"/>
  <polygon class="fil3" points="2199,11634 2614,11634 2614,11711 2290,11711 2290,11955 2564,11955 2564,12032 2290,12032 2290,12354 2199,12354 "/>
  <path class="fil3" d="M2688 11991c0,-230 127,-370 308,-370 181,0 308,141 308,370 0,232 -127,377 -308,377 -181,0 -308,-145 -308,-377zm521 0c0,-179 -85,-290 -213,-290 -129,0 -213,111 -213,290 0,180 84,296 213,296 128,0 213,-116 213,-296z"/>
  <path class="fil3" d="M3459 11634l225 0c147,0 253,53 253,202 0,112 -64,180 -163,205l183 313 -103 0 -173 -304 -131 0 0 304 -91 0 0 -720 0 0zm212 342c112,0 175,-46 175,-140 0,-94 -63,-128 -175,-128l-121 0 0 268 121 0 0 0z"/>
  <path class="fil3" d="M4230 11634l94 0 76 392c13,78 28,155 42,233l4 0c17,-78 34,-156 51,-233l99 -392 84 0 100 392c17,76 35,155 52,233l5 0c13,-78 26,-156 40,-233l76 -392 88 0 -149 720 -110 0 -109 -433c-13,-56 -24,-108 -35,-164l-4 0c-11,56 -24,108 -36,164l-107 433 -109 0 -152 -720z"/>
  <polygon class="fil3" points="5166,11634 5581,11634 5581,11711 5257,11711 5257,11937 5531,11937 5531,12015 5257,12015 5257,12277 5592,12277 5592,12354 5166,12354 "/>
  <path class="fil3" d="M5745 11634l180 0c222,0 340,129 340,357 0,230 -118,363 -336,363l-184 0 0 -720zm173 646c168,0 253,-107 253,-289 0,-181 -85,-282 -253,-282l-82 0 0 571 82 0z"/>
  <path class="fil3" d="M6420 11634l180 0c222,0 340,129 340,357 0,230 -118,363 -336,363l-184 0 0 -720zm173 646c168,0 253,-107 253,-289 0,-181 -85,-282 -253,-282l-82 0 0 571 82 0z"/>
  <polygon class="fil3" points="7095,11634 7186,11634 7186,12354 7095,12354 "/>
  <path class="fil3" d="M7384 11634l94 0 260 453 78 149 5 0c-5,-72 -11,-154 -11,-229l0 -373 86 0 0 721 -94 0 -261 -454 -78 -148 -5 0c6,72 12,149 12,225l0 376 -86 0 0 -720z"/>
  <path class="fil3" d="M8052 11994c0,-231 140,-373 331,-373 100,0 165,45 207,89l-50 59c-37,-37 -83,-68 -155,-68 -145,0 -238,112 -238,291 0,181 85,296 239,296 52,0 101,-17 130,-43l0 -188 -153 0 0 -76 236 0 0 303c-46,49 -125,84 -222,84 -190,0 -325,-139 -325,-374z"/>
  <path class="fil3" d="M8719 12261l55 -63c51,53 124,89 198,89 95,0 151,-47 151,-117 0,-73 -52,-97 -120,-127l-103 -45c-68,-29 -146,-80 -146,-186 0,-110 95,-191 226,-191 86,0 161,36 213,89l-49 59c-44,-41 -97,-68 -164,-68 -80,0 -134,41 -134,106 0,69 63,95 120,119l102 44c83,36 148,86 148,192 0,115 -93,206 -245,206 -101,0 -190,-42 -252,-107z"/>
  <path class="fil3" d="M9725 11634l104 0 243 720 -97 0 -68 -219 -263 0 -69 219 -93 0 243 -720zm-58 427l216 0 -34 -109c-26,-81 -49,-160 -72,-243l-4 0c-22,83 -45,162 -72,243l-34 109z"/>
  <path class="fil3" d="M10174 11634l95 0 260 453 78 149 4 0c-4,-72 -11,-154 -11,-229l0 -373 87 0 0 721 -94 0 -262 -454 -78 -148 -4 0c6,72 12,149 12,225l0 376 -87 0 0 -720z"/>
  <path class="fil3" d="M10885 11634l180 0c221,0 340,129 340,357 0,230 -119,363 -336,363l-184 0 0 -720zm173 646c168,0 253,-107 253,-289 0,-181 -85,-282 -253,-282l-82 0 0 571 82 0z"/>
  <polygon class="fil3" points="11779,11634 12194,11634 12194,11711 11871,11711 11871,11937 12144,11937 12144,12015 11871,12015 11871,12277 12205,12277 12205,12354 11779,12354 "/>
  <path class="fil3" d="M12259 11634l98 0 115 389c26,86 43,154 70,238l5 0c26,-84 44,-152 69,-238l115 -389 93 0 -228 720 -106 0 -231 -720z"/>
  <polygon class="fil3" points="12923,11634 13338,11634 13338,11711 13014,11711 13014,11937 13288,11937 13288,12015 13014,12015 13014,12277 13349,12277 13349,12354 12923,12354 "/>
  <path class="fil3" d="M13502 11634l94 0 260 453 78 149 5 0c-5,-72 -11,-154 -11,-229l0 -373 86 0 0 721 -94 0 -261 -454 -78 -148 -5 0c6,72 13,149 13,225l0 376 -87 0 0 -720z"/>
  <polygon class="fil3" points="14361,11711 14144,11711 14144,11634 14671,11634 14671,11711 14454,11711 14454,12354 14361,12354 "/>
  <path class="fil3" d="M14705 12261l55 -63c51,53 124,89 199,89 94,0 150,-47 150,-117 0,-73 -52,-97 -120,-127l-103 -45c-68,-29 -146,-80 -146,-186 0,-110 96,-191 226,-191 86,0 162,36 213,89l-49 59c-44,-41 -97,-68 -164,-68 -80,0 -134,41 -134,106 0,69 63,95 120,119l102 44c84,36 148,86 148,192 0,115 -93,206 -244,206 -102,0 -190,-42 -253,-107z"/>
 </g>
</svg>
